// Jest Snapshot v1, https://goo.gl/fbAQLP

exports[`Checkbox matches snapshot with checked false 1`] = `
<TouchableOpacity
  activeOpacity={0.2}
  onPress={[MockFunction]}
  style={
    Array [
      Object {
        "alignItems": "center",
        "borderRadius": 3,
        "height": 48,
        "justifyContent": "center",
        "marginTop": 10,
        "width": 48,
      },
      undefined,
    ]
  }
>
  <Image
    source={
      Object {
        "testUri": "../../../src/assets/images/icons/checkboxOn.png",
      }
    }
    style={
      Object {
        "height": 48,
        "tintColor": "grey",
        "width": 48,
      }
    }
  />
</TouchableOpacity>
`;

exports[`Checkbox matches snapshot with checked true 1`] = `
<TouchableOpacity
  activeOpacity={0.2}
  onPress={[MockFunction]}
  style={
    Array [
      Object {
        "alignItems": "center",
        "borderRadius": 3,
        "height": 48,
        "justifyContent": "center",
        "marginTop": 10,
        "width": 48,
      },
      undefined,
    ]
  }
>
  <Image
    source={
      Object {
        "testUri": "../../../src/assets/images/icons/checkboxOn.png",
      }
    }
    style={
      Object {
        "height": 48,
        "tintColor": "rgb(121, 208, 253)",
        "width": 48,
      }
    }
  />
</TouchableOpacity>
`;
