// Jest Snapshot v1, https://goo.gl/fbAQLP

exports[`PasswordRequirementsModal matches snapshot 1`] = `
<Component
  hardwareAccelerated={false}
  transparent={true}
  visible={true}
>
  <Component
    style={
      Object {
        "backgroundColor": "rgba(0, 0, 0, 0.5)",
        "height": "100%",
        "justifyContent": "center",
        "width": "100%",
      }
    }
  >
    <Component
      style={
        Object {
          "paddingLeft": 32,
          "paddingRight": 32,
          "width": "100%",
        }
      }
    >
      <Component
        style={
          Object {
            "backgroundColor": "#3a4155",
            "paddingBottom": 48,
            "paddingLeft": 32,
            "paddingRight": 32,
            "paddingTop": 48,
          }
        }
      >
        <Component
          className={
            Object {
              "marginTop": 48,
            }
          }
        >
          <Component
            style={
              Object {
                "color": "white",
                "fontFamily": "SFUIText-Regular",
                "fontSize": 32,
                "textAlign": "center",
              }
            }
          >
            Password requirements
          </Component>
          <Component
            style={
              Object {
                "flexDirection": "row",
                "marginTop": 40,
              }
            }
          >
            <Image
              source={
                Object {
                  "testUri": "../../../src/assets/images/icons/greenCheck.png",
                }
              }
            />
            <Component
              style={
                Object {
                  "color": "white",
                  "fontSize": 28,
                  "lineHeight": 40,
                  "marginLeft": 14,
                  "opacity": 0.5,
                  "paddingRight": 32,
                }
              }
            >
              The password length must be at least 8 and not more than 14 characters.
            </Component>
          </Component>
          <Component
            style={
              Object {
                "flexDirection": "row",
                "marginTop": 40,
              }
            }
          >
            <Image
              source={
                Object {
                  "testUri": "../../../src/assets/images/icons/greenCheck.png",
                }
              }
            />
            <Component
              style={
                Object {
                  "color": "white",
                  "fontSize": 28,
                  "lineHeight": 40,
                  "marginLeft": 14,
                  "opacity": 0.5,
                  "paddingRight": 32,
                }
              }
            >
              The password should consist of letters of the Latin alphabet (A-z) and Arabic numerals (0-9)
            </Component>
          </Component>
          <Component
            style={
              Object {
                "flexDirection": "row",
                "marginTop": 40,
              }
            }
          >
            <Image
              source={
                Object {
                  "testUri": "../../../src/assets/images/icons/greenCheck.png",
                }
              }
            />
            <Component
              style={
                Object {
                  "color": "white",
                  "fontSize": 28,
                  "lineHeight": 40,
                  "marginLeft": 14,
                  "opacity": 0.5,
                  "paddingRight": 32,
                }
              }
            >
              The alphabetic part of the password must contain both lowercase and uppercase letters.
            </Component>
          </Component>
          <Component
            style={
              Object {
                "height": 80,
                "marginTop": 64,
              }
            }
          >
            <_default
              onPress={[MockFunction]}
              title="Close"
            />
          </Component>
        </Component>
      </Component>
    </Component>
  </Component>
</Component>
`;
