// Jest Snapshot v1, https://goo.gl/fbAQLP

exports[`EnterPin it matches snapshot in initial state 1`] = `
<_default>
  <Component
    style={
      Object {
        "alignItems": "center",
        "flex": 1,
        "justifyContent": "flex-start",
        "paddingHorizontal": 32,
      }
    }
  >
    <Component
      style={
        Object {
          "marginTop": 200,
        }
      }
    >
      <Component
        style={
          Object {
            "color": "rgba(255, 255, 255, 0.87)",
            "fontFamily": "SFUIText-Regular",
            "fontSize": 32,
            "lineHeight": 48,
          }
        }
      >
        Enter PIN
      </Component>
    </Component>
    <Component
      style={
        Object {
          "marginTop": 64,
        }
      }
    >
      <PinInput
        error={false}
        onChangeText={[Function]}
        onFinish={[Function]}
        value=""
      />
    </Component>
    <Component
      style={
        Object {
          "marginTop": 40,
        }
      }
    >
      <_default
        onPress={[Function]}
        title="Log Out"
      />
    </Component>
  </Component>
</_default>
`;

exports[`EnterPin passes pin code value to pininput component and matches snapshot 1`] = `
<_default>
  <Component
    style={
      Object {
        "alignItems": "center",
        "flex": 1,
        "justifyContent": "flex-start",
        "paddingHorizontal": 32,
      }
    }
  >
    <Component
      style={
        Object {
          "marginTop": 200,
        }
      }
    >
      <Component
        style={
          Object {
            "color": "rgba(255, 255, 255, 0.87)",
            "fontFamily": "SFUIText-Regular",
            "fontSize": 32,
            "lineHeight": 48,
          }
        }
      >
        Enter PIN
      </Component>
    </Component>
    <Component
      style={
        Object {
          "marginTop": 64,
        }
      }
    >
      <PinInput
        error={false}
        onChangeText={[Function]}
        onFinish={[Function]}
        value="123"
      />
    </Component>
    <Component
      style={
        Object {
          "marginTop": 40,
        }
      }
    >
      <_default
        onPress={[Function]}
        title="Log Out"
      />
    </Component>
  </Component>
</_default>
`;

exports[`EnterPin passes pin code value to pininput component and matches snapshot 2`] = `
<_default>
  <Component
    style={
      Object {
        "alignItems": "center",
        "flex": 1,
        "justifyContent": "flex-start",
        "paddingHorizontal": 32,
      }
    }
  >
    <Component
      style={
        Object {
          "marginTop": 200,
        }
      }
    >
      <Component
        style={
          Object {
            "color": "rgba(255, 255, 255, 0.87)",
            "fontFamily": "SFUIText-Regular",
            "fontSize": 32,
            "lineHeight": 48,
          }
        }
      >
        Enter PIN
      </Component>
    </Component>
    <Component
      style={
        Object {
          "marginTop": 64,
        }
      }
    >
      <PinInput
        error={true}
        onChangeText={[Function]}
        onFinish={[Function]}
        value=""
      />
    </Component>
    <Component
      style={
        Object {
          "marginTop": 40,
        }
      }
    >
      <_default
        onPress={[Function]}
        title="Log Out"
      />
    </Component>
  </Component>
</_default>
`;
