// Jest Snapshot v1, https://goo.gl/fbAQLP

exports[`SettingsChangePhoneConfirm it matches snapshot in initial state 1`] = `
<_default>
  <Component
    style={
      Object {
        "marginTop": 40,
        "paddingHorizontal": 40,
      }
    }
  >
    <Component
      style={
        Object {
          "color": "rgba(255, 255, 255, 0.87)",
          "fontSize": 32,
          "lineHeight": 48,
          "textAlign": "center",
        }
      }
    >
      Soon you will get sms with code.
Please enter this code.
    </Component>
  </Component>
  <Component
    style={
      Object {
        "marginTop": 48,
      }
    }
  >
    <SmsCode
      error={false}
      onChangeText={[Function]}
      onFinish={[Function]}
      value=""
    />
  </Component>
  <Component
    style={
      Object {
        "marginTop": 20,
      }
    }
  >
    <RetrySendButton
      onPress={[Function]}
      timestamp={0}
    />
  </Component>
</_default>
`;

exports[`SettingsChangePhoneConfirm passes sms code value to smsinput component and matches snapshot 1`] = `
<_default>
  <Component
    style={
      Object {
        "marginTop": 40,
        "paddingHorizontal": 40,
      }
    }
  >
    <Component
      style={
        Object {
          "color": "rgba(255, 255, 255, 0.87)",
          "fontSize": 32,
          "lineHeight": 48,
          "textAlign": "center",
        }
      }
    >
      Soon you will get sms with code.
Please enter this code.
    </Component>
  </Component>
  <Component
    style={
      Object {
        "marginTop": 48,
      }
    }
  >
    <SmsCode
      error={false}
      onChangeText={[Function]}
      onFinish={[Function]}
      value="123"
    />
  </Component>
  <Component
    style={
      Object {
        "marginTop": 20,
      }
    }
  >
    <RetrySendButton
      onPress={[Function]}
      timestamp={0}
    />
  </Component>
</_default>
`;
