// Jest Snapshot v1, https://goo.gl/fbAQLP

exports[`SignUpPinConfirm matches snapshot 1`] = `
<_default>
  <Component
    style={
      Object {
        "alignItems": "center",
        "flex": 1,
        "justifyContent": "flex-start",
        "paddingHorizontal": 32,
      }
    }
  >
    <Component
      style={
        Object {
          "marginTop": 156,
        }
      }
    >
      <Component
        style={
          Object {
            "color": "rgba(255, 255, 255, 0.87)",
            "fontFamily": "SFUIText-Regular",
            "fontSize": 32,
            "lineHeight": 48,
          }
        }
      >
        Confirm PIN
      </Component>
    </Component>
    <Component
      style={
        Object {
          "marginTop": 64,
        }
      }
    >
      <PinInput
        error={false}
        onChangeText={[Function]}
        onFinish={[Function]}
        value=""
      />
    </Component>
  </Component>
</_default>
`;
